{
   "data": "D:/btm/data",
   "server": {
      "port": 3000
   },
   "database": {
       "type": "couchbase",
       "host": "localhost:27017",
       "user": "rammbulanz",
       "password": "nqlD3v"
   },
   "library": {
      "path": "D:/debug/better-music",
      "resolve": {
         "extension": [".mp3", ".flac"]
      }
   }
}